{
	"info": {
		"_postman_id": "ead3d6f8-6337-40a1-861d-03b8afd1543e",
		"name": "OrderManager",
		"schema": "https://schema.getpostman.com/json/collection/v2.1.0/collection.json"
	},
	"item": [
		{
			"name": "Product",
			"item": [
				{
					"name": "Get All",
					"request": {
						"method": "GET",
						"header": [],
						"url": {
							"raw": "https://localhost:44391/api/Product",
							"protocol": "https",
							"host": [
								"localhost"
							],
							"port": "44391",
							"path": [
								"api",
								"Product"
							]
						}
					},
					"response": []
				},
				{
					"name": "Get By Id",
					"request": {
						"method": "GET",
						"header": [],
						"url": {
							"raw": "https://localhost:44391/api/Product/1",
							"protocol": "https",
							"host": [
								"localhost"
							],
							"port": "44391",
							"path": [
								"api",
								"Product",
								"1"
							]
						}
					},
					"response": []
				},
				{
					"name": "Add Product",
					"request": {
						"method": "POST",
						"header": [],
						"body": {
							"mode": "raw",
							"raw": "{\r\n    \"Name\": \"Product test\",\r\n    \"Description\": \"Este es un producto test\",\r\n    \"SKU\": \"123456\",\r\n    \"Price\": 12.50,\r\n    \"StockQuantity\":10\r\n}",
							"options": {
								"raw": {
									"language": "json"
								}
							}
						},
						"url": {
							"raw": "https://localhost:44391/api/Product",
							"protocol": "https",
							"host": [
								"localhost"
							],
							"port": "44391",
							"path": [
								"api",
								"Product"
							]
						}
					},
					"response": []
				},
				{
					"name": "Update Product",
					"request": {
						"method": "PUT",
						"header": [],
						"body": {
							"mode": "raw",
							"raw": "{\r\n    \"Id\": 1, \r\n    \"Name\": \"Product test 1\",\r\n    \"Description\": \"Este es un producto test editado\",\r\n    \"SKU\": \"123456\",\r\n    \"Price\": 18.25,\r\n    \"StockQuantity\":15\r\n}",
							"options": {
								"raw": {
									"language": "json"
								}
							}
						},
						"url": {
							"raw": "https://localhost:44391/api/Product",
							"protocol": "https",
							"host": [
								"localhost"
							],
							"port": "44391",
							"path": [
								"api",
								"Product"
							]
						}
					},
					"response": []
				},
				{
					"name": "Delete Product",
					"request": {
						"method": "DELETE",
						"header": [],
						"url": {
							"raw": "https://localhost:44391/api/Product/1",
							"protocol": "https",
							"host": [
								"localhost"
							],
							"port": "44391",
							"path": [
								"api",
								"Product",
								"1"
							]
						}
					},
					"response": []
				}
			]
		},
		{
			"name": "Order",
			"item": [
				{
					"name": "Add Order",
					"request": {
						"method": "POST",
						"header": [],
						"body": {
							"mode": "raw",
							"raw": "{\r\n    \"Products\": [\r\n        {\r\n            \"Id\": 1,\r\n            \"Name\": \"Product test\",\r\n            \"Quantity\": 2\r\n        }\r\n    ]\r\n}",
							"options": {
								"raw": {
									"language": "json"
								}
							}
						},
						"url": {
							"raw": "https://localhost:44391/api/Order",
							"protocol": "https",
							"host": [
								"localhost"
							],
							"port": "44391",
							"path": [
								"api",
								"Order"
							]
						}
					},
					"response": []
				}
			]
		}
	]
}